mutation_spectrum
…
print(length(uniq_sites))

## [1] 312

#tabulate number of families that carry a heteroplasmy at each site
uniq_sites_fam<-hq%>%
  group_by(position)%>%
  summarize(nfams=length(unique(FID)))

uniq_sites_fam

## # A tibble: 312 x 2
##    position nfams
##       <int> <int>
##  1       10     1
##  2      131     1
##  3      139     2
##  4      143     1
##  5      146     2
##  6      151     1
##  7      153     2
##  8      183     1
##  9      195     5
## 10      198     1
## # ... with 302 more rows
…
