Branch Statistics analysis
…
Turns out, BLS estimates are pretty robust to this assumption.

Lets output some statistics:

#median and 95% CI for each branch type
print("Median and 95% CI for each branch type")

## [1] "Median and 95% CI for each branch type"

mbls.df.ci

## # A tibble: 22 x 4
##    branch        mean   lower upper
##    <fct>        <dbl>   <dbl> <dbl>
##  1 c1_bl.c1_ch 0.0455 0.0123  0.115
##  2 c1_bl.c2_bl 0.587  0.319   0.936
##  3 c1_bl.c2_ch 0.689  0.406   1.10 
##  4 c1_bl.m1_bl 0.264  0.152   0.391
##  5 c1_bl.m1_ch 0.231  0.142   0.339
##  6 c1_ch.c2_bl 0.602  0.343   0.915
##  7 c1_ch.c2_ch 0.692  0.409   1.06 
##  8 c1_ch.m1_bl 0.324  0.195   0.471
##  9 c1_ch.m1_ch 0.260  0.152   0.398
## 10 c2_bl.c2_ch 0.0567 0.00668 0.130
## # ... with 12 more rows
…
